{
    "type": "array",
    "items": {
        "type": "object",
        "properties": {
            "Bank Number": {"type": "string"},
            "Involved Party Id": {"type": "string"},
            "Account Number": {"type": "string"},
            "Appl Id": {"type": "string"},
            "Card Id": {"type": "string"},
            "Card Type Code": {"type": "string"},
            "Card Status Code": {"type": "string"},
            "Date Issued": {"type": "string"},
            "Date Closed": {"type": "string"},
            "Date Used Last": {"type": "string"},
            "Date Updated Last": {"type": "string"}
        }
    }
}
