Account Number,Product Major,Product Minor,Term,Next Maturity Date,Auto Renew,Last Maturity Date,Consumer or Business Account,Account Status,Status,CIF Key of Account Owner,CIF Key of Joint Account Owner 1,Joint Account,Opening Branch,Open Date,Closed Date,Opening Balance,Current Balance,Average Balance,Last Deposit Amount,Last Deposit Date,Last Withdrawal Amount,Last Withdrawal Date,eStatements,eNotices,Current Interest Rate,Interest Current Period,Interest YTD,Number of Credits,Total Credit Amount,Number of Debits,Total Debit Amount,Total Deposit Amount,Number of Deposits,Number of Withdrawals,Total Withdrawal Amount,Active OLB User Agreement,Number of OLB Debits Withdrawals,Amount of OLB Withdrawals,Number of OLB Deposit,Amount of OLB Deposit,Active Mobile User Agreement,Active VRU User Agreement,Number of VRU Withdrawals,Amount of VRU Withdrawals,Number of VRU Deposit,Amount of VRU Deposit,Number of ACH Debits,Amount of ACH Debits,Number of ACH Credits (Non Direct Deposit),Amount of ACH Credits (Non Direct Deposit),High Balance for Period,Low Balance for Period,Periodic Service Charges,Number of Repetitive Transfer Withdrawals Processed,Number of Repetitive Transfer Deposits Processed,Count of Wire Transfer Debits Initiated,Amount of Wire Transfer Debits Initiated,Amount of Wire Transfer Fees Charged,Amount of Wire Transfer Fees Reversed,Count of Wire Transfer Credits Received,Amount of Wire Transfer Credits Received,Other Service Charges,Total Service Charges,Officer Assignment,Branch/Department Assignment,Application Code,Product Type Code,Compound Freq Payment Code,Retirement Plan Code,Card Type Code,Related Card Status,E Statement Delivery Method,Club Type Code,Statement Flag,Bal Ledger Available,Date Updated Last,Account Nickname,Dormancy Code,Preferred Int Rate,Preferred Rate Option,Closing Fee Amt,Passbook Flag,Date Activity Last,User Defined 10 (271)
0110005530,SAV,063,12,09/19/2021,Y,09/19/2020,Consumer,Open,Open,VIS146000165684,,N,001,09/18/2006,,180000,262215.68,262215.68,,,,,N,N,0.0065,186.8486554482,0,,,,,,,,,N,,,,,N,N,,,,,,,,,262215.68,262215.68,,,,,,,,,,,,00000,001,00,63,2,0,,00,0,0,1,241731.24,2021-02-06 00:00:00, ,0,0,00,0,0,2020-09-19 00:00:00,0000000000
0816974281,SAV,069,60,04/08/2021,Y,04/08/2016,Consumer,Open,Open,VIS146002320831,,N,008,04/08/2011,,8317,12824.4,12824.4,,,,,N,N,0.0193,27.1524718438,0,,,,,,,,,N,,,,,N,N,,,,,,,,,12824.4,12824.4,,,,,,,,,,,,00000,008,00,69,2,0,,00,0,0,0,12824.4,2021-02-06 00:00:00, ,0,0,00,0,1,2021-04-08 00:00:00,0000000000
0220374563,SAV,069,60,01/28/2024,Y,01/28/2019,Consumer,Open,Open,VIS146000147850,,N,002,01/28/2019,,30000,31786.97,31786.97,,,,,N,N,0.03,104.6727765891,0,,,,,,,,,N,,,,,N,N,,,,,,,,,31786.97,31786.97,,,,,,,,,,,,00000,002,00,69,2,0,,00,0,0,0,31786.97,2021-02-06 00:00:00, ,0,0,00,0,1,2024-01-28 00:00:00,0000000000
0620374103,SAV,061,6,07/15/2021,Y,01/15/2021,Consumer,Open,Open,VIS146002316532,,N,006,07/15/2014,,26329,26882.88,26882.88,,,,,N,N,0.0035,6.7031114659,74.43,,,,,,,,,N,,,,,N,N,,,,,,,,,26882.88,26882.88,,,,,,,,,,,,00000,006,00,61,2,0,,00,0,0,1,26882.88,2021-02-06 00:00:00, ,1,0,00,0,0,2019-07-15 00:00:00,0000000000
0716574025,SAV,071,42,06/24/2021,Y,12/24/2017,Consumer,Open,Open,VIS146000082849,,N,007,12/24/2010,,60006,66981.42,66981.42,,,,,N,N,0.0216,158.7363783449,0,,,,,,,,,N,,,,,N,N,,,,,,,,,66981.42,66981.42,,,,,,,,,,,,00000,007,00,71,2,0,,00,0,0,1,66981.42,2021-02-06 00:00:00, ,0,0,00,0,0,2021-06-24 00:00:00,0000000000
1320374580,SAV,073,36,03/23/2023,N,03/23/2020,Consumer,Open,Open,VIS146003689689,,N,191,03/23/2020,,248000,248000,248000,,,,,N,N,0.01152,70.4544936,242.76,,,,,,,,,N,,,,,N,N,,,,,,,,,248000,248000,,,,,,,,,,,,00000,191,00,73,2,0,,00,0,0,0,248000,2021-02-06 00:00:00, ,0,0,00,0,0,2020-03-23 00:00:00,0000000000
0710003033,SAV,063,12,09/25/2021,Y,09/25/2020,Consumer,Open,Open,VIS146000074810,,N,007,09/24/2007,,32000,45111.52,45111.52,,,,,N,N,0.009,44.5149521686,0,,,,,,,,,N,,,,,N,N,,,,,,,,,45111.52,45111.52,,,,,,,,,,,,00000,007,00,63,2,0,,00,0,0,0,45111.52,2021-02-06 00:00:00, ,0,0,00,0,1,2020-09-25 00:00:00,0000000000
0816974489,SAV,069,60,07/08/2021,Y,07/08/2016,Consumer,Open,Open,VIS146002667648,VIS146003162452,Y,008,07/06/2011,,40000,49962.72,49962.72,,,,,N,N,0.0193,105.783611556,0,,,,,,,,,N,,,,,N,N,,,,,,,,,49962.72,49962.72,,,,,,,,,,,,00000,008,00,69,2,0,,00,0,0,0,49962.72,2021-02-06 00:00:00, ,0,0,00,0,1,2021-01-08 00:00:00,0000000000
0210004401,SAV,063,12,04/02/2021,Y,04/02/2020,Consumer,Open,Open,VIS146000083081,,N,002,04/02/2003,,16500,21163,21163,,,,,N,N,0.01,23.2047243229,0,,,,,,,,,N,,,,,N,N,,,,,,,,,21163,21163,,,,,,,,,,,,00000,002,00,63,2,0,,00,0,0,0,21163,2021-02-06 00:00:00, ,1,0,00,0,1,2019-10-23 00:00:00,0000000000
